R versus Python Side-by-Side
…
In addition, within each cluster, we looked at how pitchers used each pitch within each count. This was an important step because we were able to see any changes (or lack thereof) in different situations. The code above groups the data by pitcher, pitch, and count and calculates the number of pitches thrown for each combination of the three variables. Using the pitch_proportion variable, we are able to see the proportion of that pitch relative to all pitches thrown in that count.

R Version

grouped_pitches_by_outs <- filtered_pitchers %>%
  group_by(player_name, pitch_type, outs_when_up) %>%
  summarise(pitch_count = n(), .groups = 'drop') %>%
  group_by(player_name, outs_when_up) %>%
  mutate(total_pitches_in_outs = sum(pitch_count),
         pitch_proportion = pitch_count / total_pitches_in_outs) %>%
  ungroup()

grouped_pitches_by_outs

# A tibble: 505 × 6
   player_name    pitch_type outs_when_up pitch_count total_pitches_in_outs
   <chr>          <chr>             <int>       <int>                 <int>
 1 Bassitt, Chris CH                    0           2                    32
 2 Bassitt, Chris CH                    1           7                    39
 3 Bassitt, Chris CH                    2           1                    35
 4 Bassitt, Chris CU                    0           3                    32
 5 Bassitt, Chris CU                    1           2                    39
 6 Bassitt, Chris CU                    2           8                    35
 7 Bassitt, Chris FC                    0           4                    32
 8 Bassitt, Chris FC                    1           6                    39
 9 Bassitt, Chris FC                    2           7                    35
10 Bassitt, Chris FF                    0           2                    32
# ℹ 495 more rows
# ℹ 1 more variable: pitch_proportion <dbl>
…
The code below makes a column for each pitch type and their proportion thrown with a given number of outs. The second chunk makes it so the columns now have wieghted pitch proportions for each pitch type, which will reduce the impact of small sample sizes.

pitchers_grouped <- grouped_pitches_by_outs %>%
  pivot_wider(names_from = pitch_type, values_from = pitch_proportion, values_fill = 0)

aggregated_pitchers_by_outs <- pitchers_grouped %>%
  group_by(player_name, outs_when_up) %>%
  summarise(across(starts_with("CH"):starts_with("KC"), 
                   ~ sum(. * total_pitches_in_outs) / sum(total_pitches_in_outs), 
                   .names = "weighted_{col}")) %>%
  ungroup()

aggregated_pitchers_by_outs

# A tibble: 114 × 12
   player_name    outs_when_up weighted_CH weighted_CU weighted_FC weighted_FF
   <chr>                 <int>       <dbl>       <dbl>       <dbl>       <dbl>
 1 Bassitt, Chris            0     0.0125      0.0188       0.025      0.0125 
 2 Bassitt, Chris            1     0.0299      0.00855      0.0256     0      
 3 Bassitt, Chris            2     0.00571     0.0457       0.04       0.00571
 4 Berríos, José             0     0.0667      0            0          0.0556 
 5 Berríos, José             1     0.0517      0            0          0.0345 
 6 Berríos, José             2     0.0583      0            0          0.025  
 7 Bradish, Kyle             0     0.00526     0.0211       0          0.0316 
 8 Bradish, Kyle             1     0.0174      0.0522       0          0.0261 
 9 Bradish, Kyle             2     0.0370      0.0667       0          0.0667 
10 Burnes, Corbin            0     0.00893     0.0357       0.179      0      
# ℹ 104 more rows
# ℹ 6 more variables: weighted_FS <dbl>, weighted_SI <dbl>, weighted_SL <dbl>,
#   weighted_ST <dbl>, weighted_SV <dbl>, weighted_KC <dbl>
…
